<?xml version="1.0" encoding="utf-8"?>
<COLLADA xmlns="http://www.collada.org/2005/11/COLLADASchema" version="1.4.1" xmlns:xsi="http://www.w3.org/2001/XMLSchema-instance">
  <asset>
    <contributor>
      <author>Blender User</author>
      <authoring_tool>Blender 2.79.0 commit date:2017-09-12, commit time:08:47, hash:8ef39d5c882</authoring_tool>
    </contributor>
    <created>2017-12-16T19:35:57</created>
    <modified>2017-12-16T19:35:57</modified>
    <unit name="meter" meter="1"/>
    <up_axis>Z_UP</up_axis>
  </asset>
  <library_images>
    <image id="s44trees1_png" name="s44trees1_png">
      <init_from>s44trees1.png</init_from>
    </image>
    <image id="s44trees2_png" name="s44trees2_png">
      <init_from>s44trees2.png</init_from>
    </image>
  </library_images>
  <library_effects>
    <effect id="s44tree_02c_s3o_mat-effect">
      <profile_COMMON>
        <newparam sid="s44trees1_png-surface">
          <surface type="2D">
            <init_from>s44trees1_png</init_from>
          </surface>
        </newparam>
        <newparam sid="s44trees1_png-sampler">
          <sampler2D>
            <source>s44trees1_png-surface</source>
          </sampler2D>
        </newparam>
        <newparam sid="s44trees2_png-surface">
          <surface type="2D">
            <init_from>s44trees2_png</init_from>
          </surface>
        </newparam>
        <newparam sid="s44trees2_png-sampler">
          <sampler2D>
            <source>s44trees2_png-surface</source>
          </sampler2D>
        </newparam>
        <technique sid="common">
          <phong>
            <emission>
              <color sid="emission">0 0 0 1</color>
            </emission>
            <ambient>
              <color sid="ambient">0 0 0 1</color>
            </ambient>
            <diffuse>
              <texture texture="s44trees1_png-sampler" texcoord="UVMap"/>
            </diffuse>
            <specular>
              <texture texture="s44trees2_png-sampler" texcoord="UVMap"/>
            </specular>
            <shininess>
              <float sid="shininess">50</float>
            </shininess>
            <index_of_refraction>
              <float sid="index_of_refraction">1</float>
            </index_of_refraction>
          </phong>
        </technique>
      </profile_COMMON>
    </effect>
  </library_effects>
  <library_materials>
    <material id="s44tree_02c_s3o_mat-material" name="s44tree_02c_s3o_mat">
      <instance_effect url="#s44tree_02c_s3o_mat-effect"/>
    </material>
  </library_materials>
  <library_geometries>
    <geometry id="base_007-mesh" name="base.007">
      <mesh>
        <source id="base_007-mesh-positions">
          <float_array id="base_007-mesh-positions-array" count="1215">-15.83661 -1.92363 48.29738 -0.339787 -1.92363 31.25087 -31.33344 -1.92363 31.25087 -31.33344 -1.92363 31.25087 -0.339787 -1.92363 31.25087 -15.83661 -1.923633 14.20437 0.358378 23.74793 25.94999 0.358377 12.12532 38.73487 0.358377 12.12531 13.16511 0.358377 12.12531 13.16511 0.358377 12.12532 38.73487 0.358376 0.502697 25.94999 -23.42925 -1.632702 31.14325 -11.80663 -1.632702 18.35837 -11.80663 -1.632702 43.92813 -11.80663 -1.632702 43.92813 -11.80663 -1.632702 18.35837 -0.184014 -1.632702 31.14325 0.05137199 16.75243 7.280012 0.05136895 1.2556 24.32652 0.051373 32.24925 24.32652 0.051373 32.24925 24.32652 0.05136895 1.2556 24.32652 0.05137199 16.75243 41.37303 15.25014 -7.11166 36.17931 25.98804 -11.55944 23.39444 4.512238 -2.663877 23.39444 4.512238 -2.663877 23.39444 25.98804 -11.55944 23.39444 15.25014 -7.11166 10.60956 -0.672797 -3.94453 33.69879 -5.120581 -14.68243 46.48368 -5.120581 -14.68243 20.91392 -5.120581 -14.68243 20.91392 -5.120581 -14.68243 46.48368 -9.568367 -25.42033 33.69879 5.257824 -3.298529 20.91913 19.57502 -9.228909 3.872621 19.57502 -9.228905 37.96563 19.57502 -9.228905 37.96563 19.57502 -9.228909 3.872621 33.89223 -15.15928 20.91913 -5.120581 -14.43341 20.91392 -9.568367 -25.17132 33.69879 -0.672797 -3.695511 33.69879 -0.672797 -3.695511 33.69879 -9.568367 -25.17132 33.69879 -5.120581 -14.4334 46.48368 -2.269671 2.250809 37.96563 8.68824 -8.707102 20.91913 -13.22758 13.20872 20.91913 -13.22758 13.20872 20.91913 8.68824 -8.707102 20.91913 -2.269674 2.25081 3.87262 12.44425 11.07189 34.65827 4.225814 2.853458 47.44314 4.225812 2.853455 21.87339 4.225812 2.853455 21.87339 4.225814 2.853458 47.44314 -3.992622 -5.364979 34.65827 -13.55961 13.20872 20.91913 -2.601705 2.25081 3.87262 -2.601698 2.250809 37.96563 -2.601698 2.250809 37.96563 -2.601705 2.25081 3.87262 8.356207 -8.707102 20.91913 4.22581 3.185482 17.61176 -6.7321 -7.772427 34.65827 15.18372 14.14339 34.65827 15.18372 14.14339 34.65827 -6.7321 -7.772427 34.65827 4.225814 3.18549 51.70477 3.470186 -1.92363 57.76815 3.470181 -17.42045 40.72164 3.470189 13.57319 40.72164 3.470189 13.57319 40.72164 3.470181 -17.42045 40.72164 3.470186 -1.923632 23.67513 15.54819 -2.886406 14.85575 0.05136996 -2.886402 31.90226 0.05136698 -2.886404 -2.190756 0.05136698 -2.886404 -2.190756 0.05136996 -2.886402 31.90226 -15.44546 -2.886398 14.85575 3.138158 13.57319 40.72164 3.138156 -1.923632 23.67513 3.138156 -1.92363 57.76815 3.138156 -1.92363 57.76815 3.138156 -1.923632 23.67513 3.138155 -17.42045 40.72164 0.05136698 -2.554375 -2.190756 -15.44546 -2.554371 14.85575 15.54819 -2.554375 14.85575 15.54819 -2.554375 14.85575 -15.44546 -2.554371 14.85575 0.05136996 -2.554371 31.90226 16.95845 -16.19461 46.46149 16.95845 -16.19462 22.35409 1.461632 -0.6977844 46.46149 1.461632 -0.6977844 46.46149 16.95845 -16.19462 22.35409 1.461628 -0.6977844 22.35409 1.277217 -0.8778496 9.115904 1.277217 -0.8778458 33.2233 -14.21961 -16.37467 9.115905 -14.21961 -16.37467 9.115905 1.277217 -0.8778458 33.2233 -14.21961 -16.37467 33.2233 1.129602 -0.6977844 46.46149 1.129602 -0.6977844 22.35409 16.62643 -16.19461 46.46149 16.62643 -16.19461 46.46149 1.129602 -0.6977844 22.35409 16.62643 -16.19462 22.35409 -14.21961 -16.04265 9.115905 -14.21961 -16.04265 33.2233 1.277217 -0.5458202 9.115904 1.277217 -0.5458202 9.115904 -14.21961 -16.04265 33.2233 1.277217 -0.5458183 33.2233 -13.9131 -19.19465 38.9476 1.583716 -4.877449 32.42419 1.583713 -33.51184 45.47103 1.583713 -33.51184 45.47103 1.583716 -4.877449 32.42419 17.08054 -19.19465 38.94761 -31.53684 -0.9999313 10.10637 -17.21965 -16.49675 16.62978 -17.21965 14.49689 16.62979 -17.21965 14.49689 16.62979 -17.21965 -16.49675 16.62978 -2.902449 -0.9999352 23.1532 1.251684 -33.51184 45.47103 16.74851 -19.19465 38.94761 -14.24514 -19.19465 38.9476 -14.24514 -19.19465 38.9476 16.74851 -19.19465 38.94761 1.251686 -4.877449 32.42419 -12.59488 10.93171 20.17744 -1.856988 -0.6909084 25.07 -23.33279 -0.6909046 15.28488 -23.33279 -0.6909046 15.28488 -1.856988 -0.6909084 25.07 -12.59489 -12.31353 20.17743 -4.52061 16.6238 31.32536 10.97622 32.12063 31.32536 10.97621 1.126972 31.32537 10.97621 1.126972 31.32537 10.97622 32.12063 31.32536 26.47304 16.62379 31.32536 3.101971 -10.39243 24.25203 18.59879 -25.88926 24.25203 18.5988 5.104391 24.25203 18.5988 5.104391 24.25203 18.59879 -25.88926 24.25203 34.09563 -10.39243 24.25203 8.302987 0.6552487 31.19912 19.9256 12.27787 31.19912 -3.319631 12.27787 31.19912 -3.319631 12.27787 31.19912 19.9256 12.27787 31.19912 8.302989 23.90049 31.19911 14.26895 3.887335 25.89412 25.89157 -7.735285 25.89412 2.646327 -7.735281 25.89412 2.646327 -7.735281 25.89412 25.89157 -7.735285 25.89412 14.26894 -19.3579 25.89412 -4.520613 -8.25792 28.99423 10.97621 6.059278 35.51765 10.97621 -22.57512 22.47082 10.97621 -22.57512 22.47082 10.97621 6.059278 35.51765 26.47304 -8.257929 28.99423 -20.60012 -10.39243 33.10658 -6.282928 -25.88926 26.58316 -6.28292 5.104397 26.58316 -6.28292 5.104397 26.58316 -6.282928 -25.88926 26.58316 8.034279 -10.39243 20.05974 10.64418 -22.57512 22.47082 26.14101 -8.257929 28.99423 -4.852641 -8.25792 28.99423 -4.852641 -8.25792 28.99423 26.14101 -8.257929 28.99423 10.64418 6.059278 35.51765 -6.28292 5.436424 26.58316 8.034279 -10.0604 20.05974 -20.60012 -10.0604 33.10658 -20.60012 -10.0604 33.10658 8.034279 -10.0604 20.05974 -6.282928 -25.55722 26.58316 -22.52289 -1.357492 30.82038 -7.026069 4.572884 46.5693 -7.026069 -7.287872 15.07146 -7.026069 -7.287872 15.07146 -7.026069 4.572884 46.5693 8.470754 -1.357494 30.82038 -3.664804 5.51741 38.08454 0.782977 -6.105209 26.27285 0.78298 17.14002 26.27285 0.78298 17.14002 26.27285 0.782977 -6.105209 26.27285 5.230761 5.517409 14.46117 -7.358099 -7.287872 15.07146 8.138724 -1.357494 30.82038 -22.85492 -1.357492 30.82038 -22.85492 -1.357492 30.82038 8.138724 -1.357494 30.82038 -7.358099 4.572884 46.5693 0.617509 23.4387 24.75701 6.547883 7.941879 9.008095 -5.312869 7.941883 40.50593 -5.312869 7.941883 40.50593 6.547883 7.941879 9.008095 0.617504 -7.554939 24.75701 -12.24411 16.56531 39.6456 9.671703 16.56531 39.6456 -12.24412 -3.682266 30.42009 -12.24412 -3.682266 30.42009 9.671703 16.56531 39.6456 9.6717 -3.68227 30.42009 -0.9606 9.430945 26.57307 -0.960605 -7.005917 26.57307 14.22508 9.430943 19.65394 14.22508 9.430943 19.65394 -0.960605 -7.005917 26.57307 14.22508 -7.00592 19.65394 -12.57615 -3.682266 30.42009 9.339669 -3.68227 30.42009 -12.57614 16.56531 39.6456 -12.57614 16.56531 39.6456 9.339669 -3.68227 30.42009 9.339675 16.56531 39.6456 18.54031 13.15993 15.93179 18.54031 -8.755895 15.93179 -1.707265 13.15993 25.1573 -1.707265 13.15993 25.1573 18.54031 -8.755895 15.93179 -1.70727 -8.755887 25.1573 7.342444 -14.58596 43.92813 2.894663 -3.848064 31.14325 11.79022 -25.32387 31.14325 11.79022 -25.32387 31.14325 2.894663 -3.848064 31.14325 7.342446 -14.58597 18.35837 -31.53684 -14.71005 24.32653 -17.21965 -8.779679 41.37302 -17.21965 -8.779679 7.280014 -17.21965 -8.779679 7.280014 -17.21965 -8.779679 41.37302 -2.902449 -2.849302 24.32652 11.54121 -25.32387 31.14325 7.093424 -14.58597 18.35837 7.093424 -14.58596 43.92813 7.093424 -14.58596 43.92813 7.093424 -14.58597 18.35837 2.645641 -3.848064 31.14325 -17.21965 -8.447649 7.280014 -2.902449 -2.517273 24.32652 -31.53684 -14.37803 24.32653 -31.53684 -14.37803 24.32653 -2.902449 -2.517273 24.32652 -17.21965 -8.447648 41.37303 2.145461 10.3211 36.17931 2.145463 21.94372 23.39444 2.14546 -1.301521 23.39444 2.14546 -1.301521 23.39444 2.145463 21.94372 23.39444 2.145461 10.32109 10.60956 0.492947 -1.850365 34.65827 15.98977 -1.850368 51.70477 15.98977 -1.85037 17.61176 15.98977 -1.85037 17.61176 15.98977 -1.850368 51.70477 31.4866 -1.850372 34.65827 1.896439 -1.301521 23.39444 1.89644 10.32109 10.60956 1.89644 10.3211 36.17931 1.89644 10.3211 36.17931 1.89644 10.32109 10.60956 1.896441 21.94372 23.39444 12.31218 -1.328735 20.91391 23.9348 -1.328735 33.69879 0.689558 -1.328732 33.69879 0.689558 -1.328732 33.69879 23.9348 -1.328735 33.69879 12.31217 -1.328732 46.48368 0.31494 -8.25792 37.96563 6.245318 6.059278 20.91913 -5.61544 -22.57512 20.91913 -5.61544 -22.57512 20.91913 6.245318 6.059278 20.91913 0.314938 -8.257927 3.872621 -20.60012 6.199223 34.65827 -6.282923 0.2688484 51.70477 -6.282921 0.2688427 17.61176 -6.282921 0.2688427 17.61176 -6.282923 0.2688484 51.70477 8.03428 -5.661537 34.65827 -5.947467 -22.57512 20.91913 -0.01709395 -8.257927 3.872621 -0.01709395 -8.25792 37.96563 -0.01709395 -8.25792 37.96563 -0.01709395 -8.257927 3.872621 5.913287 6.059278 20.91913 -6.282921 0.6008759 17.61176 8.03428 -5.329506 34.65827 -20.60012 6.531252 34.65827 -20.60012 6.531252 34.65827 8.03428 -5.329506 34.65827 -6.282923 0.6008797 51.70477 1.801154 -1.208099 51.0312 12.53905 3.239681 38.24633 -8.936745 -5.655884 38.24633 -8.936745 -5.655884 38.24633 12.53905 3.239681 38.24633 1.801153 -1.208101 25.46144 -5.312869 12.92591 14.85575 0.617507 -1.391289 31.90226 0.617507 -1.391293 -2.190756 0.617507 -1.391293 -2.190756 0.617507 -1.391289 31.90226 6.547881 -15.70849 14.85576 -12.67415 -7.287868 40.72164 1.643044 -1.357494 23.67513 1.643044 -1.357494 57.76815 1.643044 -1.357494 57.76815 1.643044 -1.357494 23.67513 15.96024 4.57288 40.72165 0.617507 -1.059264 -2.190756 6.547881 -15.37646 14.85576 -5.312869 13.25794 14.85575 -5.312869 13.25794 14.85575 6.547881 -15.37646 14.85576 0.617507 -1.059261 31.90226 7.818348 12.234 42.55121 7.818349 12.234 24.47067 1.528232 -2.951679 42.55121 1.528232 -2.951679 42.55121 7.818349 12.234 24.47067 1.528232 -2.951683 24.47067 -1.707266 -1.027396 9.115904 -1.70727 -1.027393 33.2233 18.54031 -9.414221 9.115905 18.54031 -9.414221 9.115905 -1.70727 -1.027393 33.2233 18.54031 -9.414223 33.2233 1.279151 -3.682266 46.46149 1.279151 -3.682272 22.35409 9.665972 16.56531 46.46149 9.665972 16.56531 46.46149 1.279151 -3.682272 22.35409 9.665972 16.56531 22.35409 18.54031 -9.082194 9.115905 18.54031 -9.082192 33.2233 -1.707266 -0.6953678 9.115904 -1.707266 -0.6953678 9.115904 18.54031 -9.082192 33.2233 -1.70727 -0.6953659 33.2233 -0.866025 0.5 0 0 3.8147e-6 38 0 -1 0 0 3.8147e-6 38 0.866025 0.5 0 0 -1 0 0.866025 0.5 0 0 3.8147e-6 38 -0.866025 0.5 0 0.226859 0.4660282 18.15564 15.47841 0.3886776 30.81772 0.321593 0.2339763 18.06091 15.47841 0.3886776 30.81772 0.416327 0.4660282 17.96617 0.321593 0.2339763 18.06091 0.416327 0.4660282 17.96617 15.47841 0.3886776 30.81772 0.226859 0.4660282 18.15564 0.423508 0.09539031 25.90433 -3.414998 4.505812 31.37735 0.567797 0.2382144 25.8276 0.423508 0.09539031 25.90433 0.626527 0.09642601 25.98107 -3.414998 4.505812 31.37735 0.567797 0.2382144 25.8276 -3.414998 4.505812 31.37735 0.626527 0.09642601 25.98107 -0.05246597 -0.1522693 18.15564 -13.11346 5.755705 22.01772 -0.05118697 0.0983715 18.06091 -13.11346 5.755705 22.01772 -0.227511 -0.07976341 17.96617 -0.05118697 0.0983715 18.06091 -0.227511 -0.07976341 17.96617 -13.11346 5.755705 22.01772 -0.05246597 -0.1522693 18.15564 0.03462296 -0.1523838 24.96617 4.361148 -3.101637 29.01772 0.266673 -0.0576477 25.0609 4.361148 -3.101637 29.01772 0.03462195 0.03708648 25.15564 0.266673 -0.0576477 25.0609 0.03462195 0.03708648 25.15564 4.361148 -3.101637 29.01772 0.03462296 -0.1523838 24.96617</float_array>
          <technique_common>
            <accessor source="#base_007-mesh-positions-array" count="405" stride="3">
              <param name="X" type="float"/>
              <param name="Y" type="float"/>
              <param name="Z" type="float"/>
            </accessor>
          </technique_common>
        </source>
        <source id="base_007-mesh-normals">
          <float_array id="base_007-mesh-normals-array" count="399">0 -1 0 0 -1 1.73286e-7 -1 0 0 -1 0 0 0 1 0 1 -1.28836e-7 0 1 -1.29062e-7 0 -0.3826834 -0.9238796 0 -0.3826835 -0.9238796 0 -0.9238795 0.3826835 0 -0.9238796 0.3826834 0 0.3826835 0.9238796 0 0.3826832 0.9238796 0 0.9238796 -0.3826835 -2.31048e-7 0.9238796 -0.3826834 3.33735e-7 -0.7071069 -0.7071067 0 -0.7071067 -0.7071068 1.44405e-7 -0.7071067 0.707107 0 -0.7071069 0.7071067 0 0.7071068 0.7071068 -1.44405e-7 0.7071068 0.7071067 -1.29964e-7 0.7071067 -0.7071068 0 0.7071067 -0.7071069 1.73286e-7 -1 2.74369e-7 0 -1 2.74369e-7 0 1.76927e-7 1 0 3.15392e-7 1 0 1 0 0 1 0 0 -1.2308e-7 -1 1.44405e-7 -1.2308e-7 -1 0 -0.7071068 -0.7071067 2.31048e-7 -0.7071069 -0.7071067 0 -0.7071067 0.7071068 0 -0.7071067 0.707107 0 0.7071068 0.7071068 0 0.707107 0.7071066 -2.31048e-7 0.707107 -0.7071067 0 0.7071067 -0.7071069 0 -2.50333e-7 0.4146245 0.9099926 -5.00665e-7 0.4146245 0.9099926 0.4146242 1.25166e-7 -0.9099928 0.4146244 1.25166e-7 -0.9099927 2.50332e-7 -0.4146246 -0.9099926 3.75499e-7 -0.4146245 -0.9099926 -0.4146241 0 0.9099929 -0.4146243 -3.33777e-7 0.9099927 -1.27076e-7 1.2308e-7 1 1.27076e-7 1.2308e-7 1 0 0 -1 1.27076e-7 0 -1 0 0 -1 2.25913e-7 -4.10266e-7 -1 0 0 1 0 1.64107e-7 1 -2.50332e-7 -0.4146245 0.9099927 2.50332e-7 -0.4146244 0.9099926 -0.4146245 0 -0.9099926 -0.4146249 0 -0.9099925 1.25166e-7 0.4146243 -0.9099927 -1.25166e-7 0.4146245 -0.9099926 0.4146247 0 0.9099926 0.4146247 0 0.9099926 0 -0.935849 0.3524012 0 -0.9358491 0.3524012 -0.9358491 0 -0.3524011 -0.935849 0 -0.3524014 0 0.935849 -0.3524012 0 0.9358491 -0.3524013 0.9358491 0 0.3524011 0.9358491 -2.63296e-7 0.3524011 0 -0.4146247 0.9099926 0 -0.4146246 0.9099926 -0.4146245 1.39074e-7 -0.9099926 -0.4146245 0 -0.9099927 0 0.4146246 -0.9099926 0 0.4146247 -0.9099926 0.4146245 0 0.9099926 0.9238798 0.3826831 0 0.9238796 0.3826831 0 0.3826833 -0.9238796 0 0.3826833 -0.9238796 0 -0.9238796 -0.3826833 0 -0.9238798 -0.3826832 0 -0.3826835 0.9238796 0 -0.3826836 0.9238796 -2.31048e-7 1 -1.2836e-7 0 1 0 0 -3.077e-7 -1 0 -1.8462e-7 -1 0 -1 0 0 -1 0 0 1.64107e-7 1 -1.47614e-7 1.64107e-7 1 -1.47614e-7 0.9238795 -0.3826835 0 0.9238796 -0.3826835 0 -0.3826834 -0.9238796 1.29964e-7 -0.3826836 -0.9238795 1.29964e-7 -0.9238797 0.3826832 0 -0.9238795 0.3826836 0 0.3826835 0.9238796 0 0.3826835 0.9238796 -2.59929e-7 0.3826833 -0.9238797 0 0.3826834 -0.9238796 0 -0.9238796 -0.3826833 0 -0.9238797 -0.3826832 0 -0.3826832 0.9238797 0 -0.3826832 0.9238797 0 0.9238796 0.3826833 0 0.9238797 0.3826833 0 0.9238795 -0.3826835 0 0.9238796 -0.3826835 0 -0.3826836 -0.9238795 0 -0.3826838 -0.9238795 0 -0.9238795 0.3826836 0 -0.9238796 0.3826833 0 0.3826838 0.9238795 0 0.3826836 0.9238795 0 -0.8659507 -0.4999565 0.01315677 0.8659507 -0.4999565 0.01315677 0 0.9999135 0.01315665 -0.5552477 -0.4984694 0.665754 0.5610985 -0.4987589 -0.660612 0.002771019 0.9999924 0.00277096 0.6574052 -0.2905997 0.6952484 0.1955646 0.8260775 -0.5285362 -0.8248057 -0.5361115 -0.1796665 0.399556 0.3223219 0.8581746 -0.04386675 0.5025941 -0.8634089 -0.4057902 -0.9136168 0.02527278 0.4788289 -0.3828593 -0.7900263 0.4424311 0.8712745 0.2124514 -0.7529508 -0.4653328 0.4653286</float_array>
          <technique_common>
            <accessor source="#base_007-mesh-normals-array" count="133" stride="3">
              <param name="X" type="float"/>
              <param name="Y" type="float"/>
              <param name="Z" type="float"/>
            </accessor>
          </technique_common>
        </source>
        <source id="base_007-mesh-map">
          <float_array id="base_007-mesh-map-array" count="810">0.555775 0.004208981 0.555775 0.44486 0.996426 0.444861 0.555775 0.004208981 0.996426 0.444861 0.996425 0.004208981 0.996425 0.004208981 0.996426 0.444861 0.555775 0.44486 0.996425 0.004208981 0.555775 0.44486 0.555775 0.004208981 0.997791 0.003414988 0.55714 0.003415942 0.557139 0.444066 0.997791 0.003414988 0.557139 0.444066 0.99779 0.444066 0.99779 0.444066 0.557139 0.444066 0.55714 0.003415942 0.99779 0.444066 0.55714 0.003415942 0.997791 0.003414988 0.556966 0.004081964 0.556966 0.444732 0.997616 0.444732 0.556966 0.004081964 0.997616 0.444732 0.997616 0.004081964 0.997616 0.004081964 0.997616 0.444732 0.556966 0.444732 0.997616 0.004081964 0.556966 0.444732 0.556966 0.004081964 0.99733 0.003795981 0.55668 0.003795981 0.55668 0.444446 0.99733 0.003795981 0.55668 0.444446 0.99733 0.444446 0.99733 0.444446 0.55668 0.444446 0.55668 0.003795981 0.99733 0.444446 0.55668 0.003795981 0.99733 0.003795981 0.55672 0.003835976 0.55672 0.444486 0.99737 0.444486 0.55672 0.003835976 0.99737 0.444486 0.99737 0.003835976 0.99737 0.003835976 0.99737 0.444486 0.55672 0.444486 0.99737 0.003835976 0.55672 0.444486 0.55672 0.003835976 0.996907 0.004690945 0.556256 0.004690945 0.556256 0.445341 0.996907 0.004690945 0.556256 0.445341 0.996907 0.445341 0.996907 0.445341 0.556256 0.445341 0.556256 0.004690945 0.996907 0.445341 0.556256 0.004690945 0.996907 0.004690945 0.55606 0.004494965 0.55606 0.445146 0.996711 0.445146 0.55606 0.004494965 0.996711 0.445146 0.996711 0.004494965 0.996711 0.004494965 0.996711 0.445146 0.55606 0.445146 0.996711 0.004494965 0.55606 0.445146 0.55606 0.004494965 0.997192 0.004975974 0.556542 0.004975974 0.556542 0.445627 0.997192 0.004975974 0.556542 0.445627 0.997193 0.445627 0.997193 0.445627 0.556542 0.445627 0.556542 0.004975974 0.997193 0.445627 0.556542 0.004975974 0.997192 0.004975974 0.555323 0.006275951 0.555323 0.446926 0.995973 0.446926 0.555323 0.006275951 0.995973 0.446926 0.995973 0.006275951 0.995973 0.006275951 0.995973 0.446926 0.555323 0.446926 0.995973 0.006275951 0.555323 0.446926 0.555323 0.006275951 0.556153 0.006275951 0.556153 0.446926 0.996803 0.446926 0.556153 0.006275951 0.996803 0.446926 0.996803 0.006275951 0.996803 0.006275951 0.996803 0.446926 0.556153 0.446926 0.996803 0.006275951 0.556153 0.446926 0.556153 0.006275951 0.556916 0.004031956 0.556916 0.444682 0.997566 0.444682 0.556916 0.004031956 0.997566 0.444682 0.997566 0.004031956 0.997566 0.004031956 0.997566 0.444682 0.556916 0.444682 0.997566 0.004031956 0.556916 0.444682 0.556916 0.004031956 0.996251 0.004873991 0.555601 0.004873991 0.555601 0.445525 0.996251 0.004873991 0.555601 0.445525 0.996251 0.445525 0.996251 0.445525 0.555601 0.445525 0.555601 0.004873991 0.996251 0.445525 0.555601 0.004873991 0.996251 0.004873991 0.996773 0.005395948 0.556123 0.005395948 0.556123 0.446046 0.996773 0.005395948 0.556123 0.446046 0.996773 0.446046 0.996773 0.446046 0.556123 0.446046 0.556123 0.005395948 0.996773 0.446046 0.556123 0.005395948 0.996773 0.005395948 0.996292 0.445565 0.996292 0.004913985 0.555641 0.004913985 0.996292 0.445565 0.555641 0.004913985 0.555641 0.445565 0.555641 0.445565 0.555641 0.004913985 0.996292 0.004913985 0.555641 0.445565 0.996292 0.004913985 0.996292 0.445565 0.555356 0.004628956 0.555356 0.44528 0.996006 0.44528 0.555356 0.004628956 0.996006 0.44528 0.996006 0.004628956 0.996006 0.004628956 0.996006 0.44528 0.555356 0.44528 0.996006 0.004628956 0.555356 0.44528 0.555356 0.004628956 0.997085 0.003549993 0.556434 0.003549993 0.556434 0.4442 0.997085 0.003549993 0.556434 0.4442 0.997085 0.444201 0.997085 0.444201 0.556434 0.4442 0.556434 0.003549993 0.997085 0.444201 0.556434 0.003549993 0.997085 0.003549993 0.557336 0.003611981 0.557335 0.444263 0.997985 0.444263 0.557336 0.003611981 0.997985 0.444263 0.997986 0.003611981 0.997986 0.003611981 0.997985 0.444263 0.557335 0.444263 0.997986 0.003611981 0.557335 0.444263 0.557336 0.003611981 0.99775 0.003375947 0.5571 0.003375947 0.557099 0.444026 0.99775 0.003375947 0.557099 0.444026 0.99775 0.444026 0.99775 0.444026 0.557099 0.444026 0.5571 0.003375947 0.99775 0.444026 0.5571 0.003375947 0.99775 0.003375947 0.556684 0.006275951 0.556684 0.446926 0.997334 0.446926 0.556684 0.006275951 0.997334 0.446926 0.997334 0.006275951 0.997334 0.006275951 0.997334 0.446926 0.556684 0.446926 0.997334 0.006275951 0.556684 0.446926 0.556684 0.006275951 0.556119 0.006275951 0.556119 0.446926 0.996769 0.446926 0.556119 0.006275951 0.996769 0.446926 0.996769 0.006275951 0.996769 0.006275951 0.996769 0.446926 0.556119 0.446926 0.996769 0.006275951 0.556119 0.446926 0.556119 0.006275951 0.557386 0.00366199 0.557385 0.444312 0.998036 0.444312 0.557386 0.00366199 0.998036 0.444312 0.998037 0.003660976 0.998037 0.003660976 0.998036 0.444312 0.557385 0.444312 0.998037 0.003660976 0.557385 0.444312 0.557386 0.00366199 0.997505 0.003129959 0.556854 0.003129959 0.556854 0.443781 0.997505 0.003129959 0.556854 0.443781 0.997505 0.443781 0.997505 0.443781 0.556854 0.443781 0.556854 0.003129959 0.997505 0.443781 0.556854 0.003129959 0.997505 0.003129959 0.556306 0.004740953 0.556306 0.445392 0.996957 0.445392 0.556306 0.004740953 0.996957 0.445392 0.996957 0.004740953 0.996957 0.004740953 0.996957 0.445392 0.556306 0.445392 0.996957 0.004740953 0.556306 0.445392 0.556306 0.004740953 0.998272 0.003896951 0.557621 0.003896951 0.557621 0.444548 0.998272 0.003896951 0.557621 0.444548 0.998272 0.444548 0.998272 0.444548 0.557621 0.444548 0.557621 0.003896951 0.998272 0.444548 0.557621 0.003896951 0.998272 0.003896951 0.557201 0.004316985 0.557202 0.444967 0.997852 0.444968 0.557201 0.004316985 0.997852 0.444968 0.997852 0.004317998 0.997852 0.004317998 0.997852 0.444968 0.557202 0.444967 0.997852 0.004317998 0.557202 0.444967 0.557201 0.004316985 0.996671 0.00445497 0.55602 0.00445497 0.55602 0.445106 0.996671 0.00445497 0.55602 0.445106 0.996671 0.445106 0.996671 0.445106 0.55602 0.445106 0.55602 0.00445497 0.996671 0.445106 0.55602 0.00445497 0.996671 0.00445497 0.555887 0.005159974 0.555887 0.44581 0.996538 0.44581 0.555887 0.005159974 0.996538 0.44581 0.996537 0.005159974 0.996537 0.005159974 0.996538 0.44581 0.555887 0.44581 0.996537 0.005159974 0.555887 0.44581 0.555887 0.005159974 0.996487 0.005109965 0.555837 0.005109965 0.555837 0.44576 0.996487 0.005109965 0.555837 0.44576 0.996487 0.44576 0.996487 0.44576 0.555837 0.44576 0.555837 0.005109965 0.996487 0.44576 0.555837 0.005109965 0.996487 0.005109965 0.556718 0.006275951 0.556718 0.446926 0.997369 0.446926 0.556718 0.006275951 0.997369 0.446926 0.997369 0.006275951 0.997369 0.006275951 0.997369 0.446926 0.556718 0.446926 0.997369 0.006275951 0.556718 0.446926 0.556718 0.006275951 0.555357 0.006275951 0.555357 0.446926 0.996007 0.446926 0.555357 0.006275951 0.996007 0.446926 0.996007 0.006275951 0.996007 0.006275951 0.996007 0.446926 0.555357 0.446926 0.996007 0.006275951 0.555357 0.446926 0.555357 0.006275951 0.04695296 0.991605 0.06947195 0.003466963 0.04695296 0.003466963 0.02443295 0.003466963 0.04695296 0.991605 0.04695296 0.003466963 0.04695296 0.991605 0.02443295 0.003466963 0.06947195 0.003466963 0.04731196 0.868202 0.05111199 0.142433 0.04622495 0.142861 0.04133898 0.143288 0.04731196 0.868202 0.04622495 0.142861 0.04731196 0.868202 0.04133898 0.143288 0.05111199 0.142433 0.04755198 0.910631 0.06185698 0.062307 0.03242897 0.063699 0.03986299 0.04270595 0.06185698 0.062307 0.04755198 0.910631 0.04755198 0.910631 0.03242897 0.063699 0.03986299 0.04270595 0.04328298 0.783296 0.04838097 0.16539 0.05249696 0.164149 0.058833 0.1706539 0.04328298 0.783296 0.05249696 0.164149 0.04328298 0.783296 0.058833 0.1706539 0.04838097 0.16539 0.04778599 0.855974 0.04637098 0.181317 0.03624397 0.207988 0.06214398 0.196025 0.04778599 0.855974 0.03624397 0.207988 0.04778599 0.855974 0.06214398 0.196025 0.04637098 0.181317</float_array>
          <technique_common>
            <accessor source="#base_007-mesh-map-array" count="405" stride="2">
              <param name="S" type="float"/>
              <param name="T" type="float"/>
            </accessor>
          </technique_common>
        </source>
        <vertices id="base_007-mesh-vertices">
          <input semantic="POSITION" source="#base_007-mesh-positions"/>
        </vertices>
        <triangles material="s44tree_02c_s3o_mat-material" count="135">
          <input semantic="VERTEX" source="#base_007-mesh-vertices" offset="0"/>
          <input semantic="NORMAL" source="#base_007-mesh-normals" offset="1"/>
          <input semantic="TEXCOORD" source="#base_007-mesh-map" offset="2" set="0"/>
          <p>1 0 0 0 0 1 2 0 2 4 1 3 3 1 4 5 1 5 7 2 6 6 2 7 8 2 8 10 3 9 9 3 10 11 3 11 13 4 12 12 4 13 14 4 14 16 4 15 15 4 16 17 4 17 19 5 18 18 5 19 20 5 20 22 6 21 21 6 22 23 6 23 25 7 24 24 7 25 26 7 26 28 8 27 27 8 28 29 8 29 31 9 30 30 9 31 32 9 32 34 10 33 33 10 34 35 10 35 37 11 36 36 11 37 38 11 38 40 12 39 39 12 40 41 12 41 43 13 42 42 13 43 44 13 44 46 14 45 45 14 46 47 14 47 49 15 48 48 15 49 50 15 50 52 16 51 51 16 52 53 16 53 55 17 54 54 17 55 56 17 56 58 18 57 57 18 58 59 18 59 61 19 60 60 19 61 62 19 62 64 20 63 63 20 64 65 20 65 67 21 66 66 21 67 68 21 68 70 22 69 69 22 70 71 22 71 73 23 72 72 23 73 74 23 74 76 24 75 75 24 76 77 24 77 79 25 78 78 25 79 80 25 80 82 26 81 81 26 82 83 26 83 85 27 84 84 27 85 86 27 86 88 28 87 87 28 88 89 28 89 91 29 90 90 29 91 92 29 92 94 30 93 93 30 94 95 30 95 97 31 96 96 31 97 98 31 98 100 32 99 99 32 100 101 32 101 103 33 102 102 33 103 104 33 104 106 34 105 105 34 106 107 34 107 109 35 108 108 35 109 110 35 110 112 36 111 111 36 112 113 36 113 115 37 114 114 37 115 116 37 116 118 38 117 117 38 118 119 38 119 121 39 120 120 39 121 122 39 122 124 40 123 123 40 124 125 40 125 127 41 126 126 41 127 128 41 128 130 42 129 129 42 130 131 42 131 133 43 132 132 43 133 134 43 134 136 44 135 135 44 136 137 44 137 139 45 138 138 45 139 140 45 140 142 46 141 141 46 142 143 46 143 145 47 144 144 47 145 146 47 146 148 48 147 147 48 148 149 48 149 151 49 150 150 49 151 152 49 152 154 50 153 153 50 154 155 50 155 157 51 156 156 51 157 158 51 158 160 52 159 159 52 160 161 52 161 163 53 162 162 53 163 164 53 164 166 54 165 165 54 166 167 54 167 169 55 168 168 55 169 170 55 170 172 56 171 171 56 172 173 56 173 175 57 174 174 57 175 176 57 176 178 58 177 177 58 178 179 58 179 181 59 180 180 59 181 182 59 182 184 60 183 183 60 184 185 60 185 187 61 186 186 61 187 188 61 188 190 62 189 189 62 190 191 62 191 193 63 192 192 63 193 194 63 194 196 64 195 195 64 196 197 64 197 199 65 198 198 65 199 200 65 200 202 66 201 201 66 202 203 66 203 205 67 204 204 67 205 206 67 206 208 68 207 207 68 208 209 68 209 211 69 210 210 69 211 212 69 212 214 70 213 213 70 214 215 70 215 217 71 216 216 71 217 218 71 218 220 72 219 219 72 220 221 72 221 223 73 222 222 73 223 224 73 224 226 74 225 225 74 226 227 74 227 229 75 228 228 75 229 230 75 230 232 76 231 231 76 232 233 76 233 235 62 234 234 62 235 236 62 236 238 77 237 237 77 238 239 77 239 241 78 240 240 78 241 242 78 242 244 79 243 243 79 244 245 79 245 247 80 246 246 80 247 248 80 248 250 81 249 249 81 250 251 81 251 253 82 252 252 82 253 254 82 254 256 83 255 255 83 256 257 83 257 259 84 258 258 84 259 260 84 260 262 85 261 261 85 262 263 85 263 265 86 264 264 86 265 266 86 266 268 87 267 267 87 268 269 87 269 271 88 270 270 88 271 272 88 272 274 89 273 273 89 274 275 89 275 277 90 276 276 90 277 278 90 278 280 91 279 279 91 280 281 91 281 283 92 282 282 92 283 284 92 284 286 93 285 285 93 286 287 93 287 289 94 288 288 94 289 290 94 290 292 95 291 291 95 292 293 95 293 295 96 294 294 96 295 296 96 296 298 97 297 297 97 298 299 97 299 301 98 300 300 98 301 302 98 302 304 99 303 303 99 304 305 99 305 307 100 306 306 100 307 308 100 308 310 101 309 309 101 310 311 101 311 313 102 312 312 102 313 314 102 314 316 103 315 315 103 316 317 103 317 319 104 318 318 104 319 320 104 320 322 105 321 321 105 322 323 105 323 325 106 324 324 106 325 326 106 326 328 107 327 327 107 328 329 107 329 331 108 330 330 108 331 332 108 332 334 109 333 333 109 334 335 109 335 337 110 336 336 110 337 338 110 338 340 111 339 339 111 340 341 111 341 343 112 342 342 112 343 344 112 344 346 113 345 345 113 346 347 113 347 349 114 348 348 114 349 350 114 350 352 115 351 351 115 352 353 115 353 355 116 354 354 116 355 356 116 356 358 117 357 357 117 358 359 117 359 361 118 360 360 118 361 362 118 362 364 119 363 363 119 364 365 119 365 367 120 366 366 120 367 368 120 368 370 121 369 369 121 370 371 121 371 373 122 372 372 122 373 374 122 374 376 123 375 375 123 376 377 123 377 379 124 378 378 124 379 380 124 380 382 125 381 381 125 382 383 125 383 385 126 384 384 126 385 386 126 386 388 127 387 387 127 388 389 127 389 391 128 390 390 128 391 392 128 392 394 129 393 393 129 394 395 129 395 397 130 396 396 130 397 398 130 398 400 131 399 399 131 400 401 131 401 403 132 402 402 132 403 404 132 404</p>
        </triangles>
      </mesh>
    </geometry>
  </library_geometries>
  <library_visual_scenes>
    <visual_scene id="Scene" name="Scene">
      <node id="base" name="base" type="NODE">
        <matrix sid="transform">1 0 0 0 0 1 0 0 0 0 1 0 0 0 0 1</matrix>
        <instance_geometry url="#base_007-mesh" name="base">
          <bind_material>
            <technique_common>
              <instance_material symbol="s44tree_02c_s3o_mat-material" target="#s44tree_02c_s3o_mat-material"/>
            </technique_common>
          </bind_material>
        </instance_geometry>
      </node>
    </visual_scene>
  </library_visual_scenes>
  <scene>
    <instance_visual_scene url="#Scene"/>
  </scene>
</COLLADA>